<?xml version="1.0" encoding="UTF-8" standalone="no"?>
<svg
   xmlns:dc="http://purl.org/dc/elements/1.1/"
   xmlns:cc="http://creativecommons.org/ns#"
   xmlns:rdf="http://www.w3.org/1999/02/22-rdf-syntax-ns#"
   xmlns:svg="http://www.w3.org/2000/svg"
   xmlns="http://www.w3.org/2000/svg"
   xmlns:xlink="http://www.w3.org/1999/xlink"
   xmlns:sodipodi="http://sodipodi.sourceforge.net/DTD/sodipodi-0.dtd"
   xmlns:inkscape="http://www.inkscape.org/namespaces/inkscape"
   viewBox="0 0 1324.4975 264.88968"
   version="1.1"
   id="svg4041"
   sodipodi:docname="hockey-logo.svg"
   width="1324.4974"
   height="264.88968"
   inkscape:version="0.92.2 (5c3e80d, 2017-08-06)">
  <metadata
     id="metadata4045">
    <rdf:RDF>
      <cc:Work
         rdf:about="">
        <dc:format>image/svg+xml</dc:format>
        <dc:type
           rdf:resource="http://purl.org/dc/dcmitype/StillImage" />
      </cc:Work>
    </rdf:RDF>
  </metadata>
  <sodipodi:namedview
     pagecolor="#ffffff"
     bordercolor="#666666"
     borderopacity="1"
     objecttolerance="10"
     gridtolerance="10"
     guidetolerance="10"
     inkscape:pageopacity="0"
     inkscape:pageshadow="2"
     inkscape:window-width="1920"
     inkscape:window-height="1017"
     id="namedview4043"
     showgrid="false"
     inkscape:zoom="1.0762195"
     inkscape:cx="333.19578"
     inkscape:cy="78.905402"
     inkscape:window-x="1672"
     inkscape:window-y="-8"
     inkscape:window-maximized="1"
     inkscape:current-layer="svg4041" />
  <defs
     id="defs3965">
    <filter
       id="ad">
      <feGaussianBlur
         stdDeviation="1.6539"
         id="feGaussianBlur3873" />
    </filter>
    <linearGradient
       id="d">
      <stop
         offset="0"
         id="stop3876" />
      <stop
         stop-opacity="0"
         offset="1"
         id="stop3878" />
    </linearGradient>
    <linearGradient
       id="a">
      <stop
         stop-color="#4d4d4d"
         offset="0"
         id="stop3881" />
      <stop
         stop-color="#1a1a1a"
         offset="1"
         id="stop3883" />
    </linearGradient>
    <linearGradient
       id="b">
      <stop
         stop-color="#959594"
         offset="0"
         id="stop3886" />
      <stop
         stop-color="#ccc"
         offset=".5"
         id="stop3888" />
      <stop
         stop-color="#959594"
         offset="1"
         id="stop3890" />
    </linearGradient>
    <linearGradient
       id="c">
      <stop
         offset="0"
         id="stop3893" />
      <stop
         stop-color="#333"
         offset="1"
         id="stop3895" />
    </linearGradient>
    <linearGradient
       id="e">
      <stop
         offset="0"
         id="stop3898" />
      <stop
         stop-color="#4d4d4d"
         offset="1"
         id="stop3900" />
    </linearGradient>
    <linearGradient
       id="f">
      <stop
         stop-color="#87cdde"
         offset="0"
         id="stop3903" />
      <stop
         stop-color="#afdde9"
         stop-opacity="0"
         offset="1"
         id="stop3905" />
    </linearGradient>
    <linearGradient
       id="ab"
       x1="-179.61"
       x2="-446.04001"
       y1="168.05"
       y2="299.47"
       gradientUnits="userSpaceOnUse">
      <stop
         stop-color="#a59065"
         offset="0"
         id="stop3908" />
      <stop
         stop-color="#d9c8aa"
         offset="1"
         id="stop3910" />
    </linearGradient>
    <linearGradient
       id="z"
       x1="-69.903"
       x2="-440.85999"
       y1="128.89"
       y2="56.391998"
       gradientUnits="userSpaceOnUse">
      <stop
         stop-color="#dbe2e3"
         offset="0"
         id="stop3913" />
      <stop
         stop-color="#dbe2e3"
         stop-opacity="0"
         offset="1"
         id="stop3915" />
    </linearGradient>
    <linearGradient
       id="y"
       x1="-346.39001"
       x2="-657.20001"
       y1="100.05"
       y2="344.64001"
       gradientUnits="userSpaceOnUse">
      <stop
         offset="0"
         id="stop3918" />
      <stop
         stop-color="#374845"
         offset="1"
         id="stop3920" />
    </linearGradient>
    <linearGradient
       id="t"
       x1="-148.78"
       x2="-180.5"
       y1="407.92999"
       y2="337.70001"
       gradientUnits="userSpaceOnUse">
      <stop
         stop-color="#333"
         offset="0"
         id="stop3923" />
      <stop
         stop-color="#1a1a1a"
         offset="1"
         id="stop3925" />
    </linearGradient>
    <linearGradient
       id="r"
       x1="-200.52"
       x2="-188.32001"
       y1="534.76001"
       y2="445.04001"
       gradientUnits="userSpaceOnUse">
      <stop
         stop-color="#806600"
         offset="0"
         id="stop3928" />
      <stop
         stop-color="#806600"
         stop-opacity="0"
         offset="1"
         id="stop3930" />
    </linearGradient>
    <linearGradient
       id="j"
       x1="-1289.2"
       x2="-1107.9"
       gradientUnits="userSpaceOnUse">
      <stop
         stop-color="#1a1a1a"
         offset="0"
         id="stop3933" />
      <stop
         stop-color="#4d4d4d"
         offset=".1745"
         id="stop3935" />
      <stop
         stop-color="#1a1a1a"
         offset="1"
         id="stop3937" />
    </linearGradient>
    <linearGradient
       id="ac"
       x1="-261.97"
       x2="-180.39999"
       y1="190.45"
       y2="344.51001"
       gradientUnits="userSpaceOnUse"
       xlink:href="#f" />
    <linearGradient
       id="aa"
       x1="-439.54001"
       x2="-357.97"
       y1="242.05"
       y2="396.12"
       gradientUnits="userSpaceOnUse"
       xlink:href="#f" />
    <linearGradient
       id="x"
       x1="-298.25"
       x2="-245.5"
       y1="176.64"
       y2="154.21001"
       gradientUnits="userSpaceOnUse"
       xlink:href="#c" />
    <linearGradient
       id="w"
       x1="-204.13"
       x2="-272.79001"
       y1="148.17999"
       y2="50.005001"
       gradientUnits="userSpaceOnUse"
       xlink:href="#c" />
    <linearGradient
       id="v"
       x1="-418.13"
       x2="-257.47"
       y1="390.14001"
       y2="359.17001"
       gradientUnits="userSpaceOnUse"
       xlink:href="#e" />
    <linearGradient
       id="u"
       x1="-248.31"
       x2="-87.653"
       y1="316.45001"
       y2="285.47"
       gradientUnits="userSpaceOnUse"
       xlink:href="#e" />
    <linearGradient
       id="s"
       x1="-1240.8"
       x2="498.98001"
       y1="316.20999"
       y2="431.56"
       gradientUnits="userSpaceOnUse"
       xlink:href="#c" />
    <linearGradient
       id="q"
       x1="-502.37"
       x2="-468.23001"
       gradientUnits="userSpaceOnUse"
       xlink:href="#b" />
    <linearGradient
       id="p"
       x1="444.06"
       x2="489.48999"
       y1="352.60001"
       y2="390.35999"
       gradientUnits="userSpaceOnUse"
       xlink:href="#b" />
    <linearGradient
       id="o"
       x1="389.75"
       x2="363.53"
       y1="508.42999"
       y2="467.85001"
       gradientUnits="userSpaceOnUse"
       xlink:href="#d" />
    <linearGradient
       id="n"
       x1="217.21001"
       x2="253.21001"
       y1="504.64001"
       y2="561.25"
       gradientUnits="userSpaceOnUse"
       xlink:href="#b" />
    <linearGradient
       id="m"
       x1="-1224.4"
       x2="-1170.1"
       y1="320.98999"
       y2="332.31"
       gradientUnits="userSpaceOnUse"
       xlink:href="#a" />
    <linearGradient
       id="l"
       x1="-1128.9"
       x2="-1082.8"
       y1="338.23999"
       y2="352.59"
       gradientUnits="userSpaceOnUse"
       xlink:href="#a" />
    <linearGradient
       id="k"
       x1="-1022.9"
       x2="-976.40997"
       y1="353.76001"
       y2="361.31"
       gradientUnits="userSpaceOnUse"
       xlink:href="#a" />
    <radialGradient
       id="h"
       cx="-1199.3"
       cy="-18.017"
       r="90.627998"
       gradientTransform="matrix(1,0,0,0.16667,0,-15.014)"
       gradientUnits="userSpaceOnUse">
      <stop
         stop-color="#333"
         offset="0"
         id="stop3954" />
      <stop
         offset="1"
         id="stop3956" />
    </radialGradient>
    <radialGradient
       id="g"
       cx="104.22"
       cy="59.081001"
       r="90.627998"
       gradientTransform="matrix(1.1833,0,0,0.25819125,841.01333,164.79956)"
       gradientUnits="userSpaceOnUse">
      <stop
         stop-opacity=".5"
         offset="0"
         id="stop3959" />
      <stop
         stop-opacity="0"
         offset="1"
         id="stop3961" />
    </radialGradient>
    <radialGradient
       id="i"
       cx="30.209"
       cy="436.63"
       r="99.690002"
       gradientTransform="matrix(0.44881,0,0,0.07532795,1126.7933,171.10761)"
       gradientUnits="userSpaceOnUse"
       xlink:href="#d" />
  </defs>
  <path
     d="m 1071.5793,180.0535 a 107.24248,23.40002 0 1 1 -214.48492,0 107.24248,23.40002 0 1 1 214.48492,0 z"
     id="path3967"
     inkscape:connector-curvature="0"
     style="fill:url(#g);stroke-width:1.321293" />
  <g
     transform="matrix(0.50799,0,0,0.51155385,1132.0233,-13.427598)"
     id="g4005">
    <path
       d="m -457.43,370.93 c -0.008,-2.623 5.6041,-3.4798 5.0418,-6.0418 -4.1088,-18.723 -20.27,-36.969 -30.964,-55.132 -13.957,-23.702 -35.399,-43.894 -43.314,-70.236 -6.1602,-20.503 -4.8533,-42.977 -2,-64.195 2.2818,-16.968 7.3962,-33.803 15.105,-49.09 8.592,-17.039 19.375,-33.793 33.985,-46.069 20.028,-16.828 45.364,-26.903 70.236,-35.006 31.073,-10.124 96.67,-16.349 96.67,-16.349 0,0 9.9736,2.9974 15.105,3.7762 11.717,1.7784 21.625,-0.09987 35.496,2 25.738,3.8964 41.154,12.813 67.971,19.146 7.5475,1.7826 14.273,11.266 18.881,18.881 4.3692,7.221 4.6841,16.23 7.5523,24.167 1.5729,4.3528 2.5103,9.1358 5.2866,12.839 1.9339,2.5794 6.6966,2.9336 7.5523,6.0418 1.1418,4.1475 -4.6356,7.7832 -4.5314,12.084 0.15937,6.578 7.8736,11.546 7.818,18.126 -0.0794,9.391 -10.754,16.324 -11.594,25.678 -1.3927,15.507 16.08,30.487 11.328,45.314 -2.7249,8.503 -12.643,12.933 -20.391,17.37 -5.3196,3.0469 -11.672,8.302 -17.37,6.0418 -18.212,-7.2233 -11.097,-40.933 -27.188,-52.111 -3.3338,-2.3159 -8.9175,-4.0507 -12.084,-1.5105 -13.92,11.168 -38.255,36.933 -37.762,40.293 3.7929,25.846 12.72,52.485 14.349,76.013 0.53952,7.7894 -3.7041,15.595 -8.3075,21.902 -5.8807,8.0567 -14.307,14.564 -23.412,18.636 -30.539,13.658 -66.45,8.8688 -98.935,16.86 -10.023,2.4655 -20.467,4.4766 -29.454,9.5523 -5.804,3.2779 -9.3987,9.6588 -15.105,13.105 -4.5513,2.7486 -9.7066,7.1058 -14.86,5.7971 -7.5622,-1.9205 -15.081,-10.079 -15.105,-17.881 z"
       id="path3969"
       inkscape:connector-curvature="0"
       style="fill:#1a1a1a;stroke:#000000" />
    <path
       d="m -222.7,175.83 -42.312,1.5 -25.656,24.188 10.562,55.125 c 0,0 13.913,10.441 21.906,13.594 9.2339,3.6423 19.299,6.1511 29.219,5.7812 10.358,-0.38617 21.989,-1.6605 29.938,-8.3125 7.4261,-6.2146 9.1207,-17.148 12.594,-26.188 1.5999,-4.1641 3.7812,-12.812 3.7812,-12.812 l -40.031,-52.875 z m -6.0625,32.312 c 0.7033,0.0226 1.1889,0.15108 1.4062,0.40625 6.3344,7.4366 20.336,21.145 11.812,25.812 -11.693,6.4028 -10.356,3.7089 -19.375,8.5625 -7.904,4.2534 -13.904,-12.533 -13.844,-23.281 0.0362,-6.4144 15.077,-11.658 20,-11.5 z"
       id="path3971"
       inkscape:connector-curvature="0"
       style="opacity:0.5;fill:url(#ac)" />
    <path
       d="m -413.87,370.46 c -5.9671,-1.9991 -9.2371,-23.491 -13.105,-35.496 -4.2446,-13.176 -6.62,-26.917 -11.063,-40.027 -4.5311,-13.371 -11.501,-26.571 -15.86,-39.272 -0.92453,-2.6939 3.8041,-4.2799 6.0418,-6.0418 4.1725,-3.2852 8.6023,-6.4956 13.594,-8.3075 5.6223,-2.0408 13.301,-5.4461 17.748,-2.6433 22.826,14.387 35.402,40.519 56.265,57.286 3.9362,3.1635 8.2398,10.127 12.839,8.0418 7.4192,-3.3641 15.688,-7.5609 19.636,-14.727 1.5233,-2.765 -0.20817,-6.4341 0.75523,-9.4404 0.89594,-2.7958 4.5581,-4.6166 4.5314,-7.5523 -0.0216,-2.3748 -3.7716,-3.6669 -3.7762,-6.0418 -0.008,-4.1463 5.2382,-6.6407 6.5523,-10.573 2.0829,-6.2332 2.1235,-13.073 1.7762,-19.636 -0.43401,-8.2015 -5.3982,-15.976 -4.7971,-24.167 0.18239,-2.4853 0.96922,-5.0836 2.5105,-7.0418 5.0246,-6.3839 13.203,-9.5642 20.391,-13.349 13.485,-7.1008 27.86,-12.475 42.293,-17.37 15.807,-5.3618 32.086,-9.2642 48.335,-13.084 12.496,-2.9374 24.967,-6.5175 37.762,-7.5523 2.2598,-0.18276 5.6595,-1.7164 6.7971,0.24477 2.9961,5.1652 -7.0901,10.018 -8.3285,15.86 -2.4069,11.353 2.9929,23.157 2.2866,34.741 -0.41091,6.7397 -0.26301,14.135 -3.7762,19.902 -3.3261,5.4594 -8.8981,10.286 -15.105,11.818 -2.7325,0.67459 -6.8425,0.89277 -8.3075,-1.5105 -8.2737,-13.572 -19.626,-25.978 -23.412,-40.782 -0.9083,-3.5511 0.4657,-8.5082 1.8881,-12.461 1.7395,-4.8342 10.718,-11.725 7.9299,-13.217 -1.4194,-0.75913 -14.274,15.422 -22.657,21.657 -8.5936,6.3921 -18.076,12.602 -27.944,15.86 -5.2815,1.7436 -11.529,-1.1554 -16.126,-4.2866 -4.2631,-2.9039 -4.1551,-11.274 -9.1747,-12.461 -2.4266,-0.57402 -5.2219,1.3644 -6.6642,3.3985 -2.204,3.1084 -1.8131,7.5284 -1.5314,11.328 0.2907,3.9211 1.0134,8.1203 3.2866,11.328 3.7561,5.3009 11.015,7.0003 15.86,11.328 2.5258,2.2564 5.0924,4.6257 6.7971,7.5523 3.473,5.9624 5.0297,12.906 6.5523,19.636 1.9591,8.6592 3.887,17.577 3.2657,26.433 -0.47435,6.7618 -2.6682,13.384 -5.2866,19.636 -3.269,7.8056 -8.1546,14.854 -12.839,21.902 -3.0213,4.5457 -5.3768,9.9316 -9.818,13.105 -7.3199,5.2296 -16.459,8.0368 -25.678,8.3075 -13.785,0.40488 -28.182,2.982 -42.293,4.2657 -7.2944,0.66357 -14.579,1.5956 -21.902,1.7762 -3.0215,0.0745 -6.2076,-1.2782 -9.0628,-0.28662 -1.8658,0.64801 -2.8075,2.8539 -4.5314,3.818 -2.7773,1.5532 -6.399,1.2592 -9.0628,3 -5.6703,3.7055 -7.1713,17.256 -13.594,15.105 z"
       id="path3973"
       inkscape:connector-curvature="0"
       style="fill:url(#ab)" />
    <path
       d="m -400.27,227.44 -42.312,1.5 -25.656,24.188 10.562,55.125 c 0,0 13.913,10.441 21.906,13.594 9.2339,3.6423 19.299,6.1511 29.219,5.7812 10.358,-0.38617 21.989,-1.6605 29.938,-8.3125 7.4261,-6.2146 9.1207,-17.148 12.594,-26.188 1.5999,-4.1641 3.7812,-12.812 3.7812,-12.812 l -40.031,-52.875 z m -6.0625,32.312 c 0.7033,0.0226 1.1889,0.15108 1.4062,0.40625 6.3344,7.4366 20.336,21.145 11.812,25.812 -11.693,6.4028 -10.356,3.7089 -19.375,8.5625 -7.904,4.2534 -13.904,-12.533 -13.844,-23.281 0.0362,-6.4144 15.077,-11.658 20,-11.5 z"
       id="path3975"
       inkscape:connector-curvature="0"
       style="opacity:0.5;fill:url(#aa)" />
    <path
       d="m -313.16,26.25 c 0,0 -65.614,6.2513 -96.688,16.375 -24.872,8.1034 -50.191,18.172 -70.219,35 -14.61,12.276 -25.408,29.023 -34,46.062 -7.7084,15.287 -12.812,32.126 -15.094,49.094 -2.8533,21.218 -4.1602,43.684 2,64.188 7.9147,26.343 29.356,46.548 43.312,70.25 10.695,18.163 26.86,36.402 30.969,55.125 0.56226,2.5621 -5.0705,3.4082 -5.0625,6.0312 0.0235,7.8022 7.5628,15.955 15.125,17.875 5.1533,1.3087 10.292,-3.0327 14.844,-5.7812 1.5275,-0.92244 5.911,-7.054 7.2188,-8.2812 0,0 -9.9047,-37 -15.616,-55.274 -6.1754,-19.759 -13.272,-34.91 -20.153,-58.743 0.99357,-21.143 30.374,-26.755 43.796,-19.515 22.826,14.387 31.611,40.546 52.474,57.312 3.9362,3.1635 8.2446,10.117 12.844,8.0312 7.4192,-3.3641 15.677,-7.5527 19.625,-14.719 1.5233,-2.765 -0.18215,-6.4312 0.78125,-9.4375 0.89594,-2.7958 4.5579,-4.6268 4.5312,-7.5625 -0.0216,-2.3748 -3.7767,-3.6563 -3.7812,-6.0312 -0.008,-4.1463 5.2171,-6.6612 6.5312,-10.594 2.0829,-6.2332 2.1286,-13.062 1.7812,-19.625 -0.43401,-8.2015 -5.3824,-15.965 -4.7812,-24.156 0.18239,-2.4853 0.95876,-5.1043 2.5,-7.0625 5.0246,-6.3839 13.218,-9.5586 20.406,-13.344 13.485,-7.1008 27.849,-12.479 42.281,-17.375 15.807,-5.3618 32.095,-9.2743 48.344,-13.094 12.496,-2.9374 24.955,-6.4965 37.75,-7.5312 2.2598,-0.18276 5.6749,-1.7111 6.8125,0.25 2.9961,5.1652 -7.1054,10.002 -8.3438,15.844 -2.4069,11.353 2.9875,23.166 2.2812,34.75 -0.41091,6.7397 -0.26811,14.14 -3.7812,19.906 -3.3261,5.4594 -8.8872,10.28 -15.094,11.812 -0.89874,0.22187 -1.9464,0.36015 -3,0.40625 0.7806,0.47894 1.6021,0.92512 2.5,1.2812 5.6985,2.2601 12.055,-2.9844 17.375,-6.0312 7.748,-4.4378 17.65,-8.872 20.375,-17.375 4.7514,-14.827 -12.705,-29.805 -11.312,-45.312 0.84007,-9.3537 11.514,-16.296 11.594,-25.688 0.0556,-6.5797 -7.6531,-11.547 -7.8125,-18.125 -0.10419,-4.3005 5.673,-7.915 4.5312,-12.062 -0.85569,-3.1083 -5.6286,-3.4831 -7.5625,-6.0625 -2.7763,-3.7031 -3.7084,-8.4597 -5.2812,-12.812 -2.8682,-7.9377 -3.1933,-16.966 -7.5625,-24.188 -4.6076,-7.615 -11.327,-17.092 -18.875,-18.875 -26.817,-6.3336 -42.23,-15.26 -67.969,-19.156 -13.871,-2.0999 -23.783,-0.22165 -35.5,-2 -5.1311,-0.7788 -15.094,-3.7812 -15.094,-3.7812 z m 101.53,141.78 c -1.475,0.19032 -8.258,8.1812 -14.969,14.906 1.9852,-0.30396 4.272,0.17693 6.3125,1.0312 0.28193,-0.93051 0.56547,-1.8272 0.875,-2.6875 1.7395,-4.8342 10.726,-11.728 7.9375,-13.219 -0.0444,-0.0237 -0.09,-0.0398 -0.15625,-0.0312 z m -76.656,20.688 c -2.1804,0.0143 -4.488,1.7201 -5.75,3.5 -2.204,3.1084 -1.813,7.5437 -1.5312,11.344 0.2907,3.9211 1.008,8.1044 3.2812,11.312 3.7561,5.3009 11.03,7.0156 15.875,11.344 2.5258,2.2564 5.0766,4.6047 6.7812,7.5312 3.473,5.9624 5.0399,12.926 6.5625,19.656 1.9591,8.6592 3.8713,17.581 3.25,26.438 -0.47435,6.7618 -2.6628,13.373 -5.2812,19.625 -3.269,7.8056 -8.1595,14.858 -12.844,21.906 -3.0213,4.5457 -5.3713,9.9208 -9.8125,13.094 -7.3199,5.2296 -16.437,8.0417 -25.656,8.3125 -5.9497,0.17475 -12.019,0.76332 -18.125,1.4688 l 4.75,6.6562 c 14.638,-1.5294 28.989,-4.0102 42.312,-9.9688 9.1055,-4.0722 17.526,-10.568 23.406,-18.625 4.6034,-6.3068 8.852,-14.117 8.3125,-21.906 -1.6296,-23.528 -10.551,-50.154 -14.344,-76 -0.36601,-2.494 12.924,-17.351 25.5,-29.406 -6.5027,4.3588 -13.383,8.2232 -20.469,10.562 -5.2815,1.7436 -11.528,-1.15 -16.125,-4.2812 -4.2631,-2.9039 -4.1679,-11.281 -9.1875,-12.469 -0.30333,-0.0718 -0.59476,-0.0958 -0.90625,-0.0937 z"
       id="path3977"
       inkscape:connector-curvature="0"
       style="fill:#1a1a1a" />
    <path
       d="m -439.97,106.37 16.021,-27.77 22.429,-20.293 5.3403,-8.5445 61.947,-8.5445 35.246,4.2722 42.722,4.2722 32.042,-3.2042 10.681,6.4084 -42.906,12.321 c 0,0 -27.041,8.4773 -42.927,17.585 -15.886,9.1077 -51.818,37.954 -51.818,37.954 l -37.436,24.749 36.822,-33.816 9.0284,-16.07 -32.042,3.2042 -26.701,-1.0681 z"
       id="path3979"
       inkscape:connector-curvature="0"
       style="opacity:0.8;fill:url(#z);filter:url(#ad)" />
    <path
       d="m -347.46,102.74 c 0,0 -78.402,-1.3947 -110.01,18.157 -28.404,17.57 -51.437,48.582 -58.743,81.172 -2.5357,11.31 6.4084,34.178 6.4084,34.178 0,0 71.429,-62.891 108.49,-92.717 17.544,-14.12 53.858,-40.79 53.858,-40.79 z"
       id="path3981"
       inkscape:connector-curvature="0"
       style="fill:url(#y)" />
    <path
       d="m -347.12,150.66 10.681,-7.4764 29.105,17.89 -12.016,4.9398 z"
       id="path3983"
       inkscape:connector-curvature="0"
       style="fill:#b6a27b" />
    <path
       d="m -341.77,133.71 -20.312,11.219 42.75,21.875 13.875,-4.7812 -36.312,-28.312 z m 6.125,11.75 27.5,15.469 -10.938,4.5625 -25.625,-14.438 9.0625,-5.5938 z"
       id="path3985"
       inkscape:connector-curvature="0" />
    <path
       d="m -327.01,135.29 18.881,-2.2657 20.026,17.769 -12.283,4.8063 z"
       id="path3987"
       inkscape:connector-curvature="0"
       style="fill:#b6a27b" />
    <path
       d="m -313.41,126.48 -24.938,5.2812 39.65,26.057 15.353,-5.8465 z m 3.7812,9.0625 18.875,15.844 -9.0625,3.0312 -23.406,-16.625 z"
       id="path3989"
       inkscape:connector-curvature="0" />
    <path
       d="m -303.67,123.67 c 13.668,-6.5009 53.743,16.162 53.743,16.162 l -27.043,9.4136 c 0,0 -32.275,-22.923 -26.7,-25.575 z"
       id="path3991"
       inkscape:connector-curvature="0" />
    <path
       d="m -247.72,148.13 7.5523,14.349 c 0,0 -30.65,9.9973 -45.314,16.615 -12.526,5.653 -36.251,19.636 -36.251,19.636 l -12.839,-18.126 c 0,0 25.695,-13.72 39.272,-18.881 15.418,-5.8603 47.58,-13.594 47.58,-13.594 z"
       id="path3993"
       inkscape:connector-curvature="0"
       style="fill:url(#x)" />
    <path
       d="m -294.78,89.918 c 19.815,11.628 34.989,19.347 45.926,35.246 7.7891,11.322 11.749,39.518 11.749,39.518 0,0 25.11,-11.104 38.45,-13.885 10.827,-2.2566 33.11,-2.1361 33.11,-2.1361 0,0 -6.2689,-41.873 -14.953,-60.879 -4.3514,-9.5239 -9.0891,-20.398 -18.157,-25.633 -13.315,-7.6878 -30.727,-6.5853 -45.926,-4.2722 -13.727,2.0889 -27.536,7.4377 -38.45,16.021 -5.2054,4.0938 -17.46,12.669 -11.749,16.021 z"
       id="path3995"
       inkscape:connector-curvature="0"
       style="fill:url(#w)" />
    <path
       d="m -331.45,293.37 -7.1562,6.2188 c 2.6917,3.8434 5.1573,7.9875 7.3438,12.438 17.791,36.21 10.386,78.012 -16.531,93.375 -25.109,14.331 -58.304,0.58501 -77.094,-30.719 l -7.125,6.1875 c 21.933,36.16 60.397,51.973 89.531,35.344 31.356,-17.897 39.975,-66.6 19.25,-108.78 -2.4639,-5.0146 -5.2018,-9.7086 -8.2188,-14.062 z"
       id="path3997"
       inkscape:connector-curvature="0"
       style="fill:url(#v)" />
    <path
       d="m -161.63,219.68 -7.1562,6.2188 c 2.6917,3.8434 5.1573,7.9875 7.3438,12.438 17.791,36.21 10.386,78.012 -16.531,93.375 -25.109,14.331 -58.304,0.58501 -77.094,-30.719 l -7.125,6.1875 c 21.933,36.16 60.397,51.973 89.531,35.344 31.356,-17.897 39.975,-66.6 19.25,-108.78 -2.4639,-5.0146 -5.2018,-9.7086 -8.2188,-14.062 z"
       id="path3999"
       inkscape:connector-curvature="0"
       style="fill:url(#u)" />
    <path
       d="m -192.25,349.46 -2.1361,-10.681 c 0,0 1.9433,-14.253 7.4764,-17.089 4.5362,-2.3251 14.953,3.2042 14.953,3.2042 l 10.681,6.4084 1.068,18.157 7.4764,21.361 8.5445,20.293 -16.517,18.599 -9.6125,7.767 3.7003,-15.686 2.1361,-5.3403 -10.681,-22.429 -10.681,-14.953 z"
       id="path4001"
       inkscape:connector-curvature="0"
       style="fill:url(#t)" />
    <path
       d="m -145.26,390.85 c 0,0 -37.538,11.212 -56.956,13.771 -23.994,3.1623 -49.058,6.9332 -72.668,1.8362 -8.2741,-1.7862 -15.401,-6.7851 -22.586,-11.017 -9.6934,-5.7094 -27.496,-19.28 -27.496,-19.28 0,0 -18.994,5.9057 -23.568,13.771 -2.216,3.8107 -2.646,9.5889 -0.15187,13.224 7.7383,11.277 38.45,14.319 38.45,14.319 0,0 25.153,8.458 38.298,10.157 12.97,1.6768 26.195,0.38067 39.28,-0.0585 18.364,-0.61636 37.277,0.95252 54.992,-3.6138 4.2427,-1.0936 11.784,-5.567 11.784,-5.567 z"
       id="path4003"
       inkscape:connector-curvature="0" />
  </g>
  <g
     transform="matrix(0.44881,0,0,0.45195867,1100.5633,12.109914)"
     id="g4031">
    <path
       d="m -1283.5,328 c -0.2217,1.4969 0.802,2.8766 2.2989,3.0982 l 1528.2,231.97 c 0.32552,0.0482 0.62217,0.0152 0.92618,-0.0467 0.18538,0.12493 0.37003,0.265 0.55527,0.38867 67.261,-27.381 162.91,-69.361 248.31,-167.23 12.623,-14.466 -33.696,-65.156 -45.178,-54.125 -38.774,37.253 -196.52,179.26 -247.77,177.06 l -5.0373,-0.74609 -1476.19995,-218.64 c -1.497,-0.2217 -2.8767,0.80202 -3.0984,2.2989 l -3.0618,25.966 v -2e-5 z"
       id="path4007"
       inkscape:connector-curvature="0"
       style="fill:url(#s)" />
    <path
       d="m -1277.9,299.72 c -1.27,0.0679 -2.3373,1.0028 -2.5313,2.3125 l -3.0625,25.969 c -0.2217,1.4969 0.8156,2.8721 2.3125,3.0938 l 1089,165.28 6.0312,-35.469 -1091.2,-161.16 c -0.1871,-0.0276 -0.381,-0.041 -0.5624,-0.0312 z"
       id="path4009"
       inkscape:connector-curvature="0"
       style="fill:#ffd42a" />
    <path
       d="m -1272.5,309.31 -1.625,14 1074.7,163.12 3.0938,-18.188 -1076.2,-158.94 z"
       id="path4011"
       inkscape:connector-curvature="0"
       style="fill:#0044aa" />
    <path
       d="m -1277.9,299.72 c -1.27,0.0679 -2.3373,1.0028 -2.5313,2.3125 l -3.0625,25.969 c -0.2217,1.4969 0.8156,2.8721 2.3125,3.0938 l 1089,165.28 6.0312,-35.469 -1091.2,-161.16 c -0.1871,-0.0276 -0.381,-0.041 -0.5624,-0.0312 z"
       id="path4013"
       inkscape:connector-curvature="0"
       style="fill:url(#r)" />
    <path
       d="m -1268.7,301.03 -3.625,31.406 349.47,53.062 25.562,-29.625 -371.41,-54.844 z"
       id="path4015"
       inkscape:connector-curvature="0"
       style="fill:#333333" />
    <path
       transform="matrix(0.13512,-0.99083,0.99083,0.13512,0,0)"
       d="m -499.64,-1224.8 h 28.686 a 2.7314,2.7314 0 0 1 2.7314,2.7314 v 15.785 a 2.7314,2.7314 0 0 1 -2.7314,2.7314 h -28.686 a 2.7314,2.7314 0 0 1 -2.7314,-2.7314 v -15.785 a 2.7314,2.7314 0 0 1 2.7314,-2.7314"
       id="path4017"
       inkscape:connector-curvature="0"
       style="fill:url(#q)" />
    <path
       d="m 483.22,408.32 c -12.436,-20.106 -27.98,-36.489 -46.864,-49.39 l -1.3572,-0.92723 9.0663,-8.3834 c 10.444,-9.6573 10.472,-9.671 15.882,-7.807 6.5686,2.2629 9.8483,4.7225 19.306,14.478 7.8902,8.1385 8.8735,9.3178 12.06,14.462 4.2012,6.7831 5.7883,10.376 6.755,15.29 1.2896,6.557 0.5457,8.0736 -8.9155,18.174 l -5.1023,5.4467 -0.83135,-1.3441 z"
       id="path4019"
       inkscape:connector-curvature="0"
       style="fill:url(#p)" />
    <path
       d="M 441.44,351.69 C 399.008,391.268 294.7,483.16 233.82,511 l 26.938,47.375 c 66.085,-27.427 155.08,-69.832 235.22,-161.25 l -54.531,-45.438 z"
       id="path4021"
       inkscape:connector-curvature="0"
       style="fill:url(#o)" />
    <path
       d="m 282.79,548.75 c -16.164,7.0268 -33.766,14.237 -34.585,14.166 -0.78345,-0.0676 -87.468,-13.118 -89.356,-13.453 -0.72098,-0.12776 -0.543,-1.9951 1.7057,-17.896 1.3809,-9.7645 2.559,-17.86 2.6181,-17.99 0.0591,-0.13 9.3956,1.1399 20.748,2.8215 12.086,1.7902 21.624,2.9816 23.013,2.8745 10.079,-0.77696 23.518,-5.6948 39.72,-14.535 3.9243,-2.1412 5.9691,-3.0728 6.1079,-2.7827 0.11481,0.23978 1.849,1.5272 3.854,2.8609 6.6693,4.4362 8.5889,6.0612 14.778,12.509 5.1879,5.4053 6.3216,6.7643 9.2606,11.101 5.7744,8.5206 10.308,16.128 9.9156,16.638 -0.19185,0.25002 -3.693,1.9076 -7.7798,3.6841 z"
       id="path4023"
       inkscape:connector-curvature="0"
       style="fill:url(#n)" />
    <path
       d="m -1235.7,336.64 29.906,-26.77 39.518,6.6125 -26.702,27.701 z"
       id="path4025"
       inkscape:connector-curvature="0"
       style="fill:url(#m)" />
    <path
       d="m -1141.8,351.59 32.042,-26.701 42.722,6.2722 -32.042,27.974 z"
       id="path4027"
       inkscape:connector-curvature="0"
       style="fill:url(#l)" />
    <path
       d="m -1034.9,368.68 27.77,-28.838 40.586,6.2722 -26.701,29.11 z"
       id="path4029"
       inkscape:connector-curvature="0"
       style="fill:url(#k)" />
  </g>
  <path
     d="m 1185.0937,203.99665 c 0,4.1473 -20.0317,7.50929 -44.7418,7.50929 -24.7102,0 -44.7419,-3.36203 -44.7419,-7.50929 0,-4.14727 20.0317,-7.5093 44.7419,-7.5093 24.7101,0 44.7418,3.36203 44.7418,7.5093 z"
     id="path4033"
     inkscape:connector-curvature="0"
     style="fill:url(#i);stroke-width:0.45038161" />
  <g
     transform="matrix(0.33368,0,0,0.33602096,1541.9033,187.01241)"
     id="g4039">
    <path
       d="m -1286.4375,-22.5625 c -1.5132,0 -2.75,1.23681 -2.75,2.75 v 62.5 c 0,0.41822 0.1146,0.80259 0.2813,1.15625 -0.1675,0.37517 -0.2813,0.7427 -0.2813,1.125 0,8.34205 40.5727,15.125 90.625,15.125 50.0523,0 90.625,-6.78295 90.625,-15.125 0,-0.3823 -0.083,-0.74983 -0.25,-1.125 0.1666,-0.35366 0.25,-0.73803 0.25,-1.15625 v -62.5 c 0,-1.51319 -1.2056,-2.75 -2.7187,-2.75 z"
       id="path4035"
       inkscape:connector-curvature="0"
       style="fill:url(#j)" />
    <path
       transform="translate(0.75506,-1)"
       d="m -1108.7,-18.017 c 0,8.342 -40.575,15.105 -90.628,15.105 -50.053,0 -90.628,-6.7626 -90.628,-15.105 0,-8.3424 40.575,-15.105 90.628,-15.105 50.053,0 90.628,6.7626 90.628,15.105 z"
       id="path4037"
       inkscape:connector-curvature="0"
       style="fill:url(#h)" />
  </g>
  <text
     xml:space="preserve"
     style="font-style:italic;font-variant:normal;font-weight:normal;font-stretch:normal;font-size:67.14794922px;line-height:1.25;font-family:Arial;-inkscape-font-specification:'Arial, Italic';font-variant-ligatures:normal;font-variant-caps:normal;font-variant-numeric:normal;font-feature-settings:normal;text-align:start;letter-spacing:0px;word-spacing:0px;writing-mode:lr-tb;text-anchor:start;fill:#000000;fill-opacity:1;stroke:none;stroke-width:1.89266431"
     x="27.681114"
     y="86.701752"
     id="text4049"
     transform="scale(0.78517665,1.2735988)"><tspan
       sodipodi:role="line"
       x="27.681114"
       y="86.701752"
       id="tspan4053"
       style="font-style:italic;font-variant:normal;font-weight:normal;font-stretch:normal;font-size:67.14794922px;font-family:Arial;-inkscape-font-specification:'Arial, Italic';font-variant-ligatures:normal;font-variant-caps:normal;font-variant-numeric:normal;font-feature-settings:normal;text-align:start;writing-mode:lr-tb;text-anchor:start;stroke-width:1.89266431">Mistrovství světa v Ledním Hokeji</tspan></text>
  <flowRoot
     xml:space="preserve"
     id="flowRoot4055"
     style="font-style:normal;font-weight:normal;font-size:40px;line-height:1.25;font-family:sans-serif;letter-spacing:0px;word-spacing:0px;fill:#000000;fill-opacity:1;stroke:none"
     transform="translate(518.10333,-18.400452)"><flowRegion
       id="flowRegion4057"><rect
         id="rect4059"
         width="12.07932"
         height="45.529743"
         x="286.18698"
         y="-36.362606" /></flowRegion><flowPara
       id="flowPara4061" /></flowRoot></svg>
